…
[1] "Eora26_2021_bp_FD.txt" "Eora26_2021_bp_Q.txt"  "Eora26_2021_bp_QY.txt" "Eora26_2021_bp_T.txt" 
[5] "Eora26_2021_bp_VA.txt"
Loading T matrix from: Eora26_2021_bp_T.txt 
=== Extracting EORA I-O data for VNM ===
✗ Missing required EORA data components
Processing 79 of 79 : PSE 
Loading EORA I-O data for PSE 
Found EORA files:
[1] "Eora26_2021_bp_FD.txt" "Eora26_2021_bp_Q.txt"  "Eora26_2021_bp_QY.txt" "Eora26_2021_bp_T.txt" 
[5] "Eora26_2021_bp_VA.txt"
Loading T matrix from: Eora26_2021_bp_T.txt 
=== Extracting EORA I-O data for PSE ===
✗ Missing required EORA data components
✓ Cached EORA IO data saved.
# A tibble: 79 × 6
   original_iso3c_for_join A_matrix_list year_available status        n_sectors_native n_sectors_aggregated
   <chr>                   <list>                 <dbl> <chr>         <lgl>                           <int>
 1 ALB                     <NULL>                  2021 Missing EORA… NA                                  8
 2 DZA                     <NULL>                  2021 Missing EORA… NA                                  8
 3 ATG                     <NULL>                  2021 Missing EORA… NA                                  8
 4 ARG                     <NULL>                  2021 Missing EORA… NA                                  8
 5 ARM                     <NULL>                  2021 Missing EORA… NA                                  8
 6 AZE                     <NULL>                  2021 Missing EORA… NA                                  8
 7 BRB                     <NULL>                  2021 Missing EORA… NA                                  8
 8 BLR                     <NULL>                  2021 Missing EORA… NA                                  8
 9 BLZ                     <NULL>                  2021 Missing EORA… NA                                  8
10 BIH                     <NULL>                  2021 Missing EORA… NA                                  8
# ℹ 69 more rows
# ℹ Use `print(n = ...)` to see more rows
…
